…
    ##  [ REVOLVER - Repeated Evolution in Cancer ] 
    ## 
    ##  Dataset : My REVOLVER dataset 
    ##  Cohort  : 99 patients, 65421 variants and 79 driver events. 
    ## 
    ##  Trees per patient    : YES 
    ##  Fit via TL           : YES 
    ##  REVOLVER clustering  : NO 
    ##  Jackknife statistics : NO 
    ##   
    ## For summary statistics see `?Stats_*(x)` with * = {cohort, drivers, trees, fits, clusters, ...} 
    ## 
    ## 
    ##  WARNING  Some patients have only one clone with drivers, and therefore they will just be expanded. 
    ## # A tibble: 54 x 7
    ##    patientID numBiopsies numMutations numDriverMutati… numClonesWithDr…
    ##    <chr>           <int>        <int>            <int>            <int>
    ##  1 CRUK0007            2          109                3                1
    ##  2 CRUK0010            2          141                3                1
    ##  3 CRUK0012            2          163                1                1
    ##  4 CRUK0018            4          653                4                1
    ##  5 CRUK0019            2          110                1                1
    ##  6 CRUK0021            2          221                4                1
    ##  7 CRUK0025            3          532                3                1
    ##  8 CRUK0026            2          157                4                1
    ##  9 CRUK0028            2           74                2                1
    ## 10 CRUK0029            6          399                4                1
    ## # … with 44 more rows, and 2 more variables: numTruncalMutations <int>,
    ## #   numSubclonalMutations <int>
…
  - `x` a REVOLVER cohort object;
  - `patients` a list of patients IDs that will be used to subset the
    outputs (all by default);

<!-- end list -->

``` r
# Access all data for a patient
Data(cohort, 'CRUK0001')
```

    ## # A tibble: 2,100 x 12
    ##    id    Misc  patientID variantID is.driver is.clonal cluster cluster_size
    ##    <chr> <chr> <chr>     <chr>     <lgl>     <lgl>     <chr>          <int>
    ##  1 __mu… CRUK… CRUK0001  PKD1L1    FALSE     FALSE     1               1136
    ##  2 __mu… CRUK… CRUK0001  PCNT      FALSE     FALSE     1               1136
    ##  3 __mu… CRUK… CRUK0001  CSF2RB    FALSE     FALSE     1               1136
    ##  4 __mu… CRUK… CRUK0001  KAZALD1   FALSE     FALSE     1               1136
    ##  5 __mu… CRUK… CRUK0001  CACNA2D1  FALSE     FALSE     1               1136
    ##  6 __mu… CRUK… CRUK0001  IPO9      FALSE     FALSE     1               1136
    ##  7 __mu… CRUK… CRUK0001  PDCD10    FALSE     FALSE     1               1136
    ##  8 __mu… CRUK… CRUK0001  CALD1     FALSE     FALSE     1               1136
    ##  9 __mu… CRUK… CRUK0001  CANT1     FALSE     FALSE     1               1136
    ## 10 __mu… CRUK… CRUK0001  IFT140    FALSE     FALSE     1               1136
    ## # … with 2,090 more rows, and 4 more variables: CCF <chr>, R1 <dbl>,
    ## #   R2 <dbl>, R3 <dbl>
…
``` r
# Access the names of the samples for a patient
Samples(cohort, 'CRUK0001')
```

    ## [1] "R1" "R2" "R3"

``` r
# Get the list of truncal (i.e., clonal) mutations in a patient
Truncal(cohort, 'CRUK0001')
```

    ## # A tibble: 208 x 12
    ##    id    Misc  patientID variantID is.driver is.clonal cluster cluster_size
    ##    <chr> <chr> <chr>     <chr>     <lgl>     <lgl>     <chr>          <int>
    ##  1 __mu… CRUK… CRUK0001  CDH26     FALSE     TRUE      3                208
    ##  2 __mu… CRUK… CRUK0001  MYT1      FALSE     TRUE      3                208
    ##  3 __mu… CRUK… CRUK0001  STYXL1    FALSE     TRUE      3                208
    ##  4 __mu… CRUK… CRUK0001  ATXN7     FALSE     TRUE      3                208
    ##  5 __mu… CRUK… CRUK0001  LAMA5     FALSE     TRUE      3                208
    ##  6 __mu… CRUK… CRUK0001  NINL      FALSE     TRUE      3                208
    ##  7 __mu… CRUK… CRUK0001  TRY2P     FALSE     TRUE      3                208
    ##  8 __mu… CRUK… CRUK0001  GPR141    FALSE     TRUE      3                208
    ##  9 __mu… CRUK… CRUK0001  CLDN23    FALSE     TRUE      3                208
    ## 10 __mu… CRUK… CRUK0001  AMPH      FALSE     TRUE      3                208
    ## # … with 198 more rows, and 4 more variables: CCF <chr>, R1 <dbl>,
    ## #   R2 <dbl>, R3 <dbl>

``` r
# Get the list of subclonal mutations in a patient
Subclonal(cohort, 'CRUK0001')
```

    ## # A tibble: 1,892 x 12
    ##    id    Misc  patientID variantID is.driver is.clonal cluster cluster_size
    ##    <chr> <chr> <chr>     <chr>     <lgl>     <lgl>     <chr>          <int>
    ##  1 __mu… CRUK… CRUK0001  PKD1L1    FALSE     FALSE     1               1136
    ##  2 __mu… CRUK… CRUK0001  PCNT      FALSE     FALSE     1               1136
    ##  3 __mu… CRUK… CRUK0001  CSF2RB    FALSE     FALSE     1               1136
    ##  4 __mu… CRUK… CRUK0001  KAZALD1   FALSE     FALSE     1               1136
    ##  5 __mu… CRUK… CRUK0001  CACNA2D1  FALSE     FALSE     1               1136
    ##  6 __mu… CRUK… CRUK0001  IPO9      FALSE     FALSE     1               1136
    ##  7 __mu… CRUK… CRUK0001  PDCD10    FALSE     FALSE     1               1136
    ##  8 __mu… CRUK… CRUK0001  CALD1     FALSE     FALSE     1               1136
    ##  9 __mu… CRUK… CRUK0001  CANT1     FALSE     FALSE     1               1136
    ## 10 __mu… CRUK… CRUK0001  IFT140    FALSE     FALSE     1               1136
    ## # … with 1,882 more rows, and 4 more variables: CCF <chr>, R1 <dbl>,
    ## #   R2 <dbl>, R3 <dbl>

``` r
# Return the CCF entry for all the mutations of a patient,
CCF(cohort, 'CRUK0001')
```

    ## # A tibble: 2,100 x 8
    ##    id          variantID is.driver is.clonal cluster    R1    R2    R3
    ##    <chr>       <chr>     <lgl>     <lgl>     <chr>   <dbl> <dbl> <dbl>
    ##  1 __mut_id_1  PKD1L1    FALSE     FALSE     1        0.86     0     0
    ##  2 __mut_id_2  PCNT      FALSE     FALSE     1        0.86     0     0
    ##  3 __mut_id_3  CSF2RB    FALSE     FALSE     1        0.86     0     0
    ##  4 __mut_id_4  KAZALD1   FALSE     FALSE     1        0.86     0     0
    ##  5 __mut_id_5  CACNA2D1  FALSE     FALSE     1        0.86     0     0
    ##  6 __mut_id_6  IPO9      FALSE     FALSE     1        0.86     0     0
    ##  7 __mut_id_7  PDCD10    FALSE     FALSE     1        0.86     0     0
    ##  8 __mut_id_8  CALD1     FALSE     FALSE     1        0.86     0     0
    ##  9 __mut_id_9  CANT1     FALSE     FALSE     1        0.86     0     0
    ## 10 __mut_id_10 IFT140    FALSE     FALSE     1        0.86     0     0
    ## # … with 2,090 more rows
…
You can get a broad set of summary statistics about the `cohort` for a
custom set of patients. The statistcs that are available in summarised
format are patient-level (mutatational burdern, drivers etc.), and
driver-level (frequency, clonality
etc.).

``` r
# This returns patient-level statistics like the number of biopsies, overall mutations, drivers,
# clones with drivers, truncal and subclonal mutations.
# 
# This is also synonim to `Stats(cohort)`
Stats_cohort(cohort)
```

    ## # A tibble: 99 x 7
    ##    patientID numBiopsies numMutations numDriverMutati… numClonesWithDr…
    ##    <chr>           <int>        <int>            <int>            <int>
    ##  1 CRUK0001            3         2100                7                4
    ##  2 CRUK0002            3          280                7                4
    ##  3 CRUK0003            5          330                4                2
    ##  4 CRUK0004            4          323                4                2
    ##  5 CRUK0005            4         1582                6                2
    ##  6 CRUK0006            2         1856                6                3
    ##  7 CRUK0007            2          109                3                1
    ##  8 CRUK0008            2          365                6                2
    ##  9 CRUK0009            4          487                7                2
    ## 10 CRUK0010            2          141                3                1
    ## # … with 89 more rows, and 2 more variables: numTruncalMutations <int>,
    ## #   numSubclonalMutations <int>

``` r
# This returns driver-level statistics like the number of times the driver is clonal,
# subclonal, or found in general, and for quantity normalized by cohort size (i.e., the percentage)
Stats_drivers(cohort)
```

    ## # A tibble: 79 x 7
    ##    variantID numClonal p_clonal numSubclonal p_subclonal N_tot  p_tot
    ##    <chr>         <dbl>    <dbl>        <dbl>       <dbl> <dbl>  <dbl>
    ##  1 TP53             53   0.535             3      0.0303    56 0.566 
    ##  2 KRAS             24   0.242             4      0.0404    28 0.283 
    ##  3 EGFR             21   0.212             1      0.0101    22 0.222 
    ##  4 PIK3CA           20   0.202             1      0.0101    21 0.212 
    ##  5 CDKN2A           14   0.141             0      0         14 0.141 
    ##  6 SOX2             14   0.141             0      0         14 0.141 
    ##  7 KEAP1            12   0.121             0      0         12 0.121 
    ##  8 TERT             11   0.111             2      0.0202    13 0.131 
    ##  9 FGFR1             9   0.0909            0      0          9 0.0909
    ## 10 STK11             8   0.0808            0      0          8 0.0808
    ## # … with 69 more rows
…
### Summary statistics for trees and fits

There are getters for summary statistics that work for trees and fits,
with the same principles fo the getters for the data discussed
above

``` r
# This returns patient-level statistics for the trees available in a patient. The tibble reports
# whether the patient has trees annotated, the total number of trees, their minimum and maximum
# scores mutations and the total number of differnet combinations of Information Transfer for 
# the available trees.
Stats_trees(cohort)
```

    ## # A tibble: 99 x 6
    ##    patientID hasTrees numTrees  maxScore  minScore combInfTransf
    ##    <chr>     <lgl>       <int>     <dbl>     <dbl>         <int>
    ##  1 CRUK0001  TRUE          100 0.0000653 0.0000218             8
    ##  2 CRUK0002  TRUE            3 0.6       0.0667                2
    ##  3 CRUK0003  TRUE            1 0.8       0.8                   1
    ##  4 CRUK0004  TRUE           18 0.02      0.005                 1
    ##  5 CRUK0005  TRUE          100 0.000126  0.0000628             1
    ##  6 CRUK0006  TRUE          100 0.000347  0.0000868             3
    ##  7 CRUK0007  TRUE            1 1         1                     1
    ##  8 CRUK0008  TRUE            1 1         1                     1
    ##  9 CRUK0009  TRUE           55 0.00617   0.000193              1
    ## 10 CRUK0010  TRUE            1 1         1                     1
    ## # … with 89 more rows
…
