Construct a REVOLVER cohort. — revolver_cohort • revolver
…
#> 
#> ℹ Using only driver mutations. 
#> ℹ Rejecting clusters with less than 10 mutations. 
#> 
#> ── Filtering small clusters (starting with 2380 entries) ───────────────────────
#> Removing
#> 
#> # A tibble: 0 × 9
#> # ℹ 9 variables: Misc <chr>, patientID <chr>, variantID <chr>, cluster <chr>,
#> #   is.driver <lgl>, is.clonal <lgl>, CCF <chr>, id <chr>, cluster_size <int>
#> ✔ After filtering: 2380 entries
#> 
#> ── REVOLVER input data ─────────────────────────────────────────────────────────
#> 
#> # A tibble: 2,380 × 9
#>    Misc              patientID variantID cluster is.driver is.clonal CCF   id   
#>    <chr>             <chr>     <chr>     <chr>   <lgl>     <lgl>     <chr> <chr>
#>  1 CRUK0001:7:47971… CRUK0001  PKD1L1    1       FALSE     FALSE     R1:0… __mu…
#>  2 CRUK0001:21:4775… CRUK0001  PCNT      1       FALSE     FALSE     R1:0… __mu…
#>  3 CRUK0001:22:3733… CRUK0001  CSF2RB    1       FALSE     FALSE     R1:0… __mu…
#>  4 CRUK0001:10:1028… CRUK0001  KAZALD1   1       FALSE     FALSE     R1:0… __mu…
#>  5 CRUK0001:7:81978… CRUK0001  CACNA2D1  1       FALSE     FALSE     R1:0… __mu…
#>  6 CRUK0001:1:20184… CRUK0001  IPO9      1       FALSE     FALSE     R1:0… __mu…
#>  7 CRUK0001:3:16740… CRUK0001  PDCD10    1       FALSE     FALSE     R1:0… __mu…
#>  8 CRUK0001:7:13465… CRUK0001  CALD1     1       FALSE     FALSE     R1:0… __mu…
#>  9 CRUK0001:17:7698… CRUK0001  CANT1     1       FALSE     FALSE     R1:0… __mu…
#> 10 CRUK0001:16:1662… CRUK0001  IFT140    1       FALSE     FALSE     R1:0… __mu…
#> # ℹ 2,370 more rows
#> # ℹ 1 more variable: cluster_size <int>
…
