Analysis of colorectal adenocarcinomas • revolver
…
Cross et al. The evolutionary landscape of colorectal tumorigenesis. Nat Ecol Evol. 2018 2(10). PMID 30177804.

n=19 adenomas (unmatched);

multi-region sequencing with binary data;

annotated driver events from Cross et al.;

Building the cohort

load(file = "~/Downloads/CROSS_CRC_ADENOCARCINOMA.RData")

print(CROSS_CRC_ADENOCARCINOMA)
#> # A tibble: 63 x 7
#>    patientID variantID CCF               is.clonal is.driver Misc   cluster
#>    <chr>     <chr>     <chr>             <lgl>     <lgl>     <chr>  <chr>  
#>  1 adenoma_1 ACVR2A    R1:1;R2:1;R3:1;R… TRUE      TRUE      NOTHI… 1      
#>  2 adenoma_1 APC       R1:1;R2:1;R3:1;R… TRUE      TRUE      NOTHI… 1      
#>  3 adenoma_2 APC       R1:1;R2:1;R3:1;R… TRUE      TRUE      NOTHI… 1      
#>  4 adenoma_2 KRAS      R1:0;R2:0;R3:0;R… FALSE     TRUE      NOTHI… 2      
#>  5 adenoma_2 ARID2     R1:0;R2:0;R3:0;R… FALSE     TRUE      NOTHI… 2      
#>  6 adenoma_2 TP53      R1:1;R2:1;R3:1;R… FALSE     TRUE      NOTHI… 3      
#>  7 adenoma_3 PIK3CA    R1:0;R2:0;R3:0;R… FALSE     TRUE      NOTHI… 1      
#>  8 adenoma_3 FBXW7     R1:1;R2:1;R3:1;R… TRUE      TRUE      NOTHI… 2      
#>  9 adenoma_3 APC       R1:1;R2:1;R3:1;R… TRUE      TRUE      NOTHI… 2      
#> 10 adenoma_3 AKAP9     R1:0;R2:0;R3:1;R… FALSE     TRUE      NOTHI… 3      
#> # … with 53 more rows

# Constructor
CROSS_CRC_ADENOCARCINOMA_REVOLVER = revolver_cohort(
  CROSS_CRC_ADENOCARCINOMA, 
  MIN.CLUSTER.SIZE = 0, 
  annotation = "Colorectal adenocarcinomas (Cross et al, PMID 30177804)")
#>  [ REVOLVER ~ Cohort constructor ] 
#> ◉  Use only drivers 1 
#> ◉ Reject clusters with size below 0 
#> 
#> =-=-=-=-=-=-=-=-=-=-=-
#>  REVOLVER input data
#> =-=-=-=-=-=-=-=-=-=-=-
#> # A tibble: 63 x 9
#>    Misc  patientID variantID cluster is.driver is.clonal CCF   id   
#>    <chr> <chr>     <chr>     <chr>   <lgl>     <lgl>     <chr> <chr>
#>  1 NOTH… adenoma_1 ACVR2A    1       TRUE      TRUE      R1:1… __mu…
#>  2 NOTH… adenoma_1 APC       1       TRUE      TRUE      R1:1… __mu…
#>  3 NOTH… adenoma_2 APC       1       TRUE      TRUE      R1:1… __mu…
#>  4 NOTH… adenoma_2 KRAS      2       TRUE      FALSE     R1:0… __mu…
#>  5 NOTH… adenoma_2 ARID2     2       TRUE      FALSE     R1:0… __mu…
#>  6 NOTH… adenoma_2 TP53      3       TRUE      FALSE     R1:1… __mu…
#>  7 NOTH… adenoma_3 PIK3CA    1       TRUE      FALSE     R1:0… __mu…
#>  8 NOTH… adenoma_3 FBXW7     2       TRUE      TRUE      R1:1… __mu…
#>  9 NOTH… adenoma_3 APC       2       TRUE      TRUE      R1:1… __mu…
#> 10 NOTH… adenoma_3 AKAP9     3       TRUE      FALSE     R1:0… __mu…
#> # … with 53 more rows, and 1 more variable: cluster_size <int>
…
