Getter functions • revolver
…
Access clusters and jackknife statistics

Once REVOLVER clusters have been computed, a tibble is available that maps each patient to a cluster.

# Hard clustering assignments
Cluster(TRACERx_NEJM_2017_REVOLVER)

## # A tibble: 99 × 2
##    patientID cluster
##    <chr>     <chr>  
##  1 CRUK0001  C2     
##  2 CRUK0002  C1     
##  3 CRUK0003  C2     
##  4 CRUK0004  C2     
##  5 CRUK0005  C3     
##  6 CRUK0006  C3     
##  7 CRUK0007  C2     
##  8 CRUK0008  C1     
##  9 CRUK0009  C3     
## 10 CRUK0010  C2     
## # … with 89 more rows
…
# A vector with the median stability per cluster
Jackknife_cluster_stability(TRACERx_NEJM_2017_REVOLVER)

##    C2    C1    C3    C4    C7    C5    C6   C11    C8   C10    C9 
## 0.700 0.750 0.750 0.850 0.600 0.700 0.550 0.425 0.550 0.375 0.600

# A tibble reporting the probability of detecting (at least in one patient) a trajectory 
# across the jackknife resamples, and the average number of patients where the trajectory
# is found across all resamples.
Jackknife_trajectories_stability(TRACERx_NEJM_2017_REVOLVER)

## # A tibble: 316 × 4
##    from     to    prob_resamp num_patients
##    <chr>    <chr>       <dbl>        <dbl>
##  1 ARHGAP35 TERT            1       0.0112
##  2 BRAF     TERT            1       0.0112
##  3 CCND1    UBR5            1       0.0225
##  4 CDKN2A   CYLD            1       0.0112
##  5 CDKN2A   PTPRC           1       0.0225
##  6 EGFR     CIC             1       0.0112
##  7 EP300    NF1             1       0.0225
##  8 FANCC    CYLD            1       0.0112
##  9 FAS      FLT4            1       0.0112
## 10 FAT1     CYLD            1       0.0112
## # … with 306 more rows
Summary statistics

A number of different types of Stats_* functions can be used to access cohort-level statistics.

Summaries for patients’ data

You can get a broad set of summary statistics for a custom set of patients. The statistics that are available in summarised format are patient-level (mutatational burdern, drivers etc.), and driver-level (frequency, clonality etc.).

# This returns patient-level statistics like the number of biopsies, overall mutations, drivers,
# clones with drivers, truncal and subclonal mutations.
# 
# This is also synonim to `Stats(TRACERx_NEJM_2017_REVOLVER)`
Stats_cohort(TRACERx_NEJM_2017_REVOLVER)

## # A tibble: 99 × 7
##    patientID numBiopsies numMutations numDriverMutations numClonesWithDriver
##    <chr>           <int>        <int>              <int>               <int>
##  1 CRUK0001            3            7                  7                   4
##  2 CRUK0002            3            7                  7                   4
##  3 CRUK0003            5            4                  4                   2
##  4 CRUK0004            4            4                  4                   2
##  5 CRUK0005            4            6                  6                   2
##  6 CRUK0006            2            6                  6                   3
##  7 CRUK0007            2            3                  3                   1
##  8 CRUK0008            2            6                  6                   2
##  9 CRUK0009            4            7                  7                   2
## 10 CRUK0010            2            3                  3                   1
## # … with 89 more rows, and 2 more variables: numTruncalMutations <int>,
## #   numSubclonalMutations <int>

# This returns driver-level statistics like the number of times the driver is clonal,
# subclonal, or found in general, and for quantity normalized by cohort size (i.e., the percentage)
Stats_drivers(TRACERx_NEJM_2017_REVOLVER)

## # A tibble: 79 × 7
##    variantID numClonal p_clonal numSubclonal p_subclonal N_tot  p_tot
##    <chr>         <dbl>    <dbl>        <dbl>       <dbl> <dbl>  <dbl>
##  1 TP53             53   0.535             3      0.0303    56 0.566 
##  2 KRAS             24   0.242             4      0.0404    28 0.283 
##  3 EGFR             21   0.212             1      0.0101    22 0.222 
##  4 PIK3CA           20   0.202             1      0.0101    21 0.212 
##  5 CDKN2A           14   0.141             0      0         14 0.141 
##  6 SOX2             14   0.141             0      0         14 0.141 
##  7 KEAP1            12   0.121             0      0         12 0.121 
##  8 TERT             11   0.111             2      0.0202    13 0.131 
##  9 FGFR1             9   0.0909            0      0          9 0.0909
## 10 STK11             8   0.0808            0      0          8 0.0808
## # … with 69 more rows
…
Summaries for trees and fits

There are getters for summary statistics that work for trees and fits, with the same principles fo the getters for the data discussed above

# This returns patient-level statistics for the trees available in a patient. The tibble reports
# whether the patient has trees annotated, the total number of trees, their minimum and maximum
# scores mutations and the total number of differnet combinations of Information Transfer for 
# the available trees.
Stats_trees(TRACERx_NEJM_2017_REVOLVER)

## # A tibble: 99 × 6
##    patientID hasTrees numTrees maxScore minScore combInfTransf
##    <chr>     <lgl>       <int>    <dbl>    <dbl>         <int>
##  1 CRUK0001  TRUE            3    0.111   0.111              3
##  2 CRUK0002  TRUE            2    0.75    0.0833             2
##  3 CRUK0003  TRUE            1    1       1                  1
##  4 CRUK0004  TRUE            1    1       1                  1
##  5 CRUK0005  TRUE            1    1       1                  1
##  6 CRUK0006  TRUE            2    0.667   0.167              2
##  7 CRUK0007  TRUE            1    1       1                  1
##  8 CRUK0008  TRUE            1    1       1                  1
##  9 CRUK0009  TRUE            1    1       1                  1
## 10 CRUK0010  TRUE            1    1       1                  1
## # … with 89 more rows

# This returns the same table of above, but with some extended information on the fits (like the fit rank, etc)
Stats_fits(TRACERx_NEJM_2017_REVOLVER)

## # A tibble: 99 × 9
##    patientID hasTrees numTrees maxScore minScore combInfTransf Solution
##    <chr>     <lgl>       <int>    <dbl>    <dbl>         <int>    <int>
##  1 CRUK0001  TRUE            3    0.111   0.111              3        1
##  2 CRUK0002  TRUE            2    0.75    0.0833             2        1
##  3 CRUK0003  TRUE            1    1       1                  1        1
##  4 CRUK0004  TRUE            1    1       1                  1        1
##  5 CRUK0005  TRUE            1    1       1                  1        1
##  6 CRUK0006  TRUE            2    0.667   0.167              2        1
##  7 CRUK0007  TRUE            1    1       1                  1        1
##  8 CRUK0008  TRUE            1    1       1                  1        1
##  9 CRUK0009  TRUE            1    1       1                  1        1
## 10 CRUK0010  TRUE            1    1       1                  1        1
## # … with 89 more rows, and 2 more variables: converged <lgl>, penalty <dbl>

Summaries for trees and fits

The index of Divergent Evolutionary Trajectories is a measure derived from Shannon’s entropy to determine, for any driver event X, how heterogeneous are the trajectories that lead to X.

DET_index(TRACERx_NEJM_2017_REVOLVER)

## Registered S3 method overwritten by 'vegan':
##   method     from      
##   rev.hclust dendextend

## # A tibble: 79 × 4
##    driver diversity     N DET_index
##    <chr>      <dbl> <int>     <dbl>
##  1 APC            0     1         0
##  2 BRAF           0     1         0
##  3 CDKN2A         0     1         0
##  4 CHEK2          0     1         0
##  5 CIC            0     1         0
##  6 CMTR2          0     1         0
##  7 COL2A1         0     1         0
##  8 CREBBP         0     1         0
##  9 CUX1           0     1         0
## 10 DICER1         0     1         0
## # … with 69 more rows

Other features

A number of different features in matrix format can be extracted using the get_features function.

features = get_features(TRACERx_NEJM_2017_REVOLVER)

# Matrix of the mean CCF/ binary value for a driver across all patient's biopsies
features$Matrix_mean_CCF %>% print

## # A tibble: 99 × 80
##    patientID   APC ARHGAP35 ARID1B ARID2 ASXL1   ATM  BAP1  BRAF  CBLB CCND1
##    <chr>     <dbl>    <dbl>  <dbl> <dbl> <dbl> <dbl> <dbl> <dbl> <dbl> <dbl>
##  1 CRUK0001      0    0.38       0  0        0     0     0 0         0     0
##  2 CRUK0002      0    0          0  0        0     0     0 0         0     0
##  3 CRUK0003      0    0          0  0        0     0     0 0         0     0
##  4 CRUK0004      0    0          0  0        0     0     0 0         0     0
##  5 CRUK0005      0    0          0  0        0     0     0 0.99      0     0
##  6 CRUK0006      0    0          0  0        0     0     0 0         0     0
##  7 CRUK0007      0    0          0  0        0     0     0 0         0     0
##  8 CRUK0008      0    0          0  0.43     0     0     0 0         0     0
##  9 CRUK0009      0    0.988      0  0        0     0     0 0.988     0     0
## 10 CRUK0010      0    0          0  0        0     0     0 0         0     0
## # … with 89 more rows, and 69 more variables: CDKN2A <dbl>, CHEK2 <dbl>,
## #   CIC <dbl>, CMTR2 <dbl>, COL2A1 <dbl>, COL5A2 <dbl>, CREBBP <dbl>,
## #   CTNNB1 <dbl>, CUX1 <dbl>, CYLD <dbl>, DICER1 <dbl>, DNM2 <dbl>, EGFR <dbl>,
## #   EP300 <dbl>, FANCC <dbl>, FANCM <dbl>, FAS <dbl>, FAT1 <dbl>, FBXW7 <dbl>,
## #   FGFR1 <dbl>, FLT4 <dbl>, GATA3 <dbl>, IKZF1 <dbl>, KEAP1 <dbl>,
## #   KMT2C <dbl>, KMT2D <dbl>, KRAS <dbl>, LATS1 <dbl>, MAP3K1 <dbl>, MET <dbl>,
## #   MGA <dbl>, MLH1 <dbl>, MYC <dbl>, NCOA6 <dbl>, NCOR1 <dbl>, NF1 <dbl>, …

# Matrix of the occurrence of drivers across all patients
features$Matrix_drivers %>% print

## # A tibble: 99 × 80
##    patientID   APC ARHGAP35 ARID1B ARID2 ASXL1   ATM  BAP1  BRAF  CBLB CCND1
##    <chr>     <dbl>    <dbl>  <dbl> <dbl> <dbl> <dbl> <dbl> <dbl> <dbl> <dbl>
##  1 CRUK0001      0        1      0     0     0     0     0     0     0     0
##  2 CRUK0002      0        0      0     0     0     0     0     0     0     0
##  3 CRUK0003      0        0      0     0     0     0     0     0     0     0
##  4 CRUK0004      0        0      0     0     0     0     0     0     0     0
##  5 CRUK0005      0        0      0     0     0     0     0     1     0     0
##  6 CRUK0006      0        0      0     0     0     0     0     0     0     0
##  7 CRUK0007      0        0      0     0     0     0     0     0     0     0
##  8 CRUK0008      0        0      0     1     0     0     0     0     0     0
##  9 CRUK0009      0        1      0     0     0     0     0     1     0     0
## 10 CRUK0010      0        0      0     0     0     0     0     0     0     0
## # … with 89 more rows, and 69 more variables: CDKN2A <dbl>, CHEK2 <dbl>,
## #   CIC <dbl>, CMTR2 <dbl>, COL2A1 <dbl>, COL5A2 <dbl>, CREBBP <dbl>,
## #   CTNNB1 <dbl>, CUX1 <dbl>, CYLD <dbl>, DICER1 <dbl>, DNM2 <dbl>, EGFR <dbl>,
## #   EP300 <dbl>, FANCC <dbl>, FANCM <dbl>, FAS <dbl>, FAT1 <dbl>, FBXW7 <dbl>,
## #   FGFR1 <dbl>, FLT4 <dbl>, GATA3 <dbl>, IKZF1 <dbl>, KEAP1 <dbl>,
## #   KMT2C <dbl>, KMT2D <dbl>, KRAS <dbl>, LATS1 <dbl>, MAP3K1 <dbl>, MET <dbl>,
## #   MGA <dbl>, MLH1 <dbl>, MYC <dbl>, NCOA6 <dbl>, NCOR1 <dbl>, NF1 <dbl>, …

# Matrix of the occurrence of clonal drivers across all patients
features$Matrix_clonal_drivers %>% print

## # A tibble: 99 × 80
##    patientID   APC ARHGAP35 ARID1B ARID2 ASXL1   ATM  BAP1  BRAF  CBLB CCND1
##    <chr>     <dbl>    <dbl>  <dbl> <dbl> <dbl> <dbl> <dbl> <dbl> <dbl> <dbl>
##  1 CRUK0001      0        0      0     0     0     0     0     0     0     0
##  2 CRUK0002      0        0      0     0     0     0     0     0     0     0
##  3 CRUK0003      0        0      0     0     0     0     0     0     0     0
##  4 CRUK0004      0        0      0     0     0     0     0     0     0     0
##  5 CRUK0005      0        0      0     0     0     0     0     1     0     0
##  6 CRUK0006      0        0      0     0     0     0     0     0     0     0
##  7 CRUK0007      0        0      0     0     0     0     0     0     0     0
##  8 CRUK0008      0        0      0     0     0     0     0     0     0     0
##  9 CRUK0009      0        1      0     0     0     0     0     1     0     0
## 10 CRUK0010      0        0      0     0     0     0     0     0     0     0
## # … with 89 more rows, and 69 more variables: CDKN2A <dbl>, CHEK2 <dbl>,
## #   CIC <dbl>, CMTR2 <dbl>, COL2A1 <dbl>, COL5A2 <dbl>, CREBBP <dbl>,
## #   CTNNB1 <dbl>, CUX1 <dbl>, CYLD <dbl>, DICER1 <dbl>, DNM2 <dbl>, EGFR <dbl>,
## #   EP300 <dbl>, FANCC <dbl>, FANCM <dbl>, FAS <dbl>, FAT1 <dbl>, FBXW7 <dbl>,
## #   FGFR1 <dbl>, FLT4 <dbl>, GATA3 <dbl>, IKZF1 <dbl>, KEAP1 <dbl>,
## #   KMT2C <dbl>, KMT2D <dbl>, KRAS <dbl>, LATS1 <dbl>, MAP3K1 <dbl>, MET <dbl>,
## #   MGA <dbl>, MLH1 <dbl>, MYC <dbl>, NCOA6 <dbl>, NCOR1 <dbl>, NF1 <dbl>, …

# Matrix of the occurrence of subclonal drivers across all patients
features$Matrix_subclonal_drivers %>% print

## # A tibble: 99 × 80
##    patientID   APC ARHGAP35 ARID1B ARID2 ASXL1 ATM   BAP1   BRAF CBLB  CCND1
##    <chr>     <dbl> <chr>    <chr>  <chr> <chr> <chr> <chr> <dbl> <chr> <chr>
##  1 CRUK0001      0 1        0      0     0     0     0         0 0     0    
##  2 CRUK0002      0 0        0      0     0     0     0         0 0     0    
##  3 CRUK0003      0 0        0      0     0     0     0         0 0     0    
##  4 CRUK0004      0 0        0      0     0     0     0         0 0     0    
##  5 CRUK0005      0 0        0      0     0     0     0         0 0     0    
##  6 CRUK0006      0 0        0      0     0     0     0         0 0     0    
##  7 CRUK0008      0 0        0      1     0     0     0         0 0     0    
##  8 CRUK0009      0 0        0      0     0     0     0         0 0     0    
##  9 CRUK0011      0 0        0      0     0     0     0         0 0     0    
## 10 CRUK0013      0 0        0      0     0     0     0         0 0     0    
## # … with 89 more rows, and 69 more variables: CDKN2A <dbl>, CHEK2 <dbl>,
## #   CIC <chr>, CMTR2 <dbl>, COL2A1 <dbl>, COL5A2 <chr>, CREBBP <dbl>,
## #   CTNNB1 <chr>, CUX1 <dbl>, CYLD <chr>, DICER1 <dbl>, DNM2 <chr>, EGFR <chr>,
## #   EP300 <chr>, FANCC <chr>, FANCM <chr>, FAS <chr>, FAT1 <chr>, FBXW7 <dbl>,
## #   FGFR1 <dbl>, FLT4 <chr>, GATA3 <dbl>, IKZF1 <chr>, KEAP1 <dbl>,
## #   KMT2C <dbl>, KMT2D <chr>, KRAS <chr>, LATS1 <chr>, MAP3K1 <chr>, MET <dbl>,
## #   MGA <chr>, MLH1 <chr>, MYC <dbl>, NCOA6 <chr>, NCOR1 <chr>, NF1 <chr>, …

# Matrix of the occurrence of the inferred trajectories across all patients
features$Matrix_trajectories %>% print

## # A tibble: 99 × 263
##    patientID `ARHGAP35 --> …` `ARID1B --> AS…` `ARID1B --> CO…` `ARID1B --> KR…`
##    <chr>                <dbl>            <dbl>            <dbl>            <dbl>
##  1 CRUK0001                 0                0                0                0
##  2 CRUK0002                 0                0                0                0
##  3 CRUK0003                 0                0                0                0
##  4 CRUK0004                 0                0                0                0
##  5 CRUK0005                 0                0                0                0
##  6 CRUK0006                 0                0                0                0
##  7 CRUK0007                 0                0                0                0
##  8 CRUK0008                 0                0                0                0
##  9 CRUK0009                 1                0                0                0
## 10 CRUK0010                 0                0                0                0
## # … with 89 more rows, and 258 more variables: `ARID2 --> KRAS` <dbl>,
## #   `ATM --> CCND1` <dbl>, `ATM --> MGA` <dbl>, `ATM --> NCOR1` <dbl>,
## #   `BAP1 --> PIK3CA` <dbl>, `BAP1 --> RB1` <dbl>, `BAP1 --> TP53` <dbl>,
## #   `BRAF --> TERT` <dbl>, `CBLB --> ARID1B` <dbl>, `CBLB --> DNM2` <dbl>,
## #   `CBLB --> LATS1` <dbl>, `CBLB --> PTPRC` <dbl>, `CCND1 --> ARID1B` <dbl>,
## #   `CCND1 --> FAS` <dbl>, `CCND1 --> IKZF1` <dbl>, `CCND1 --> UBR5` <dbl>,
## #   `CDKN2A --> COL5A2` <dbl>, `CDKN2A --> CTNNB1` <dbl>, …
…
