Input formats and creation of a REVOLVER cohort • revolver
…
If you use this format, REVOLVER provides you a parsing function that you can pass to the cohort construction function

Example data

An example cohort is released in the evoverse.datasets R package, which also provides a REVOLVER objectwith the final analysis of the input cohort.

# Load the package and runs available_data() to print what is available
library(evoverse.datasets)

# Load an example dataset - the TRACERx cohort
data("TRACERx_NEJM_2017", package = "evoverse.datasets")

# This is a dataset that follows the specifications given above
print(TRACERx_NEJM_2017)
#> # A tibble: 65,421 x 7
#>    Misc             patientID variantID cluster is.driver is.clonal CCF         
#>    <chr>            <chr>     <chr>     <chr>   <lgl>     <lgl>     <chr>       
#>  1 CRUK0001:7:4797… CRUK0001  PKD1L1    1       FALSE     FALSE     R1:0.86;R2:…
#>  2 CRUK0001:21:477… CRUK0001  PCNT      1       FALSE     FALSE     R1:0.86;R2:…
#>  3 CRUK0001:22:373… CRUK0001  CSF2RB    1       FALSE     FALSE     R1:0.86;R2:…
#>  4 CRUK0001:10:102… CRUK0001  KAZALD1   1       FALSE     FALSE     R1:0.86;R2:…
#>  5 CRUK0001:7:8197… CRUK0001  CACNA2D1  1       FALSE     FALSE     R1:0.86;R2:…
#>  6 CRUK0001:1:2018… CRUK0001  IPO9      1       FALSE     FALSE     R1:0.86;R2:…
#>  7 CRUK0001:3:1674… CRUK0001  PDCD10    1       FALSE     FALSE     R1:0.86;R2:…
#>  8 CRUK0001:7:1346… CRUK0001  CALD1     1       FALSE     FALSE     R1:0.86;R2:…
#>  9 CRUK0001:17:769… CRUK0001  CANT1     1       FALSE     FALSE     R1:0.86;R2:…
#> 10 CRUK0001:16:166… CRUK0001  IFT140    1       FALSE     FALSE     R1:0.86;R2:…
#> # … with 65,411 more rows
…
# Create a cohort
my_cohort = revolver_cohort(
  subset_data, 
  CCF_parser = CCF_parser,
  ONLY.DRIVER = FALSE, 
  MIN.CLUSTER.SIZE = 0,
  annotation = "My small REVOLVER dataset"
  )
#>  [ REVOLVER ~ Cohort constructor ]
#> ℹ Using only driver mutations.
#> ℹ Rejecting clusters with less than 0 mutations.
#> 
#> ── REVOLVER input data ─────────────────────────────────────────────────────────
#> 
#> # A tibble: 2,710 x 9
#>    Misc        patientID variantID cluster is.driver is.clonal CCF       id     
#>    <chr>       <chr>     <chr>     <chr>   <lgl>     <lgl>     <chr>     <chr>  
#>  1 CRUK0001:7… CRUK0001  PKD1L1    1       FALSE     FALSE     R1:0.86;… __mut_…
#>  2 CRUK0001:2… CRUK0001  PCNT      1       FALSE     FALSE     R1:0.86;… __mut_…
#>  3 CRUK0001:2… CRUK0001  CSF2RB    1       FALSE     FALSE     R1:0.86;… __mut_…
#>  4 CRUK0001:1… CRUK0001  KAZALD1   1       FALSE     FALSE     R1:0.86;… __mut_…
#>  5 CRUK0001:7… CRUK0001  CACNA2D1  1       FALSE     FALSE     R1:0.86;… __mut_…
#>  6 CRUK0001:1… CRUK0001  IPO9      1       FALSE     FALSE     R1:0.86;… __mut_…
#>  7 CRUK0001:3… CRUK0001  PDCD10    1       FALSE     FALSE     R1:0.86;… __mut_…
#>  8 CRUK0001:7… CRUK0001  CALD1     1       FALSE     FALSE     R1:0.86;… __mut_…
#>  9 CRUK0001:1… CRUK0001  CANT1     1       FALSE     FALSE     R1:0.86;… __mut_…
#> 10 CRUK0001:1… CRUK0001  IFT140    1       FALSE     FALSE     R1:0.86;… __mut_…
#> # … with 2,700 more rows, and 1 more variable: cluster_size <int>
…
#> Cohort  : 99 patients, 450 variants and 79 driver events. 
#> 
#> Trees per patient    : YES 
#> Fit via TL           : YES 
#> REVOLVER clustering  : YES 
#> Jackknife statistics : YES 
#>  
#> For summary statistics see `?Stats_*(x)` with * = {cohort, drivers, trees, fits, clusters, ...} 
#> 
#> ┌───────────────────────────────────────────────────────────────────────────────────────────┐
#> │                                                                                           │
#> │   WARNING - Some patients have only one clone with drivers; they will just be expanded.   │
#> │                                                                                           │
#> └───────────────────────────────────────────────────────────────────────────────────────────┘
#> # A tibble: 54 x 7
#>    patientID numBiopsies numMutations numDriverMutations numClonesWithDriver
#>    <chr>           <int>        <int>              <int>               <int>
#>  1 CRUK0007            2            3                  3                   1
#>  2 CRUK0010            2            3                  3                   1
#>  3 CRUK0012            2            1                  1                   1
#>  4 CRUK0018            4            4                  4                   1
#>  5 CRUK0019            2            1                  1                   1
#>  6 CRUK0021            2            4                  4                   1
#>  7 CRUK0025            3            3                  3                   1
#>  8 CRUK0026            2            4                  4                   1
#>  9 CRUK0028            2            2                  2                   1
#> 10 CRUK0029            6            4                  4                   1
#> # … with 44 more rows, and 2 more variables: numTruncalMutations <int>,
#> #   numSubclonalMutations <int>
…
