Compute the index of Divergent Evolutionary Trajectories. — DET_index • revolver
…
    Function plot_penalty plots another
measure derived from the same information used to compute the DET.

Other Summary statistics: Stats_cohort,
  Stats_drivers, Stats_fits,
  Stats_trees, Stats

    Examples

# Data released in the 'evoverse.datasets'
data('TRACERx_NEJM_2017_REVOLVER', package = 'evoverse.datasets')

# Get the DET with all cohort
DET_index(TRACERx_NEJM_2017_REVOLVER)
#> # A tibble: 79 x 4
#>    driver diversity     N DET_index
#>    <chr>      <dbl> <int>     <dbl>
#>  1 APC            0     1         0
#>  2 BRAF           0     1         0
#>  3 CDKN2A         0     1         0
#>  4 CHEK2          0     1         0
#>  5 CIC            0     1         0
#>  6 CMTR2          0     1         0
#>  7 COL2A1         0     1         0
#>  8 CREBBP         0     1         0
#>  9 CUX1           0     1         0
#> 10 DICER1         0     1         0
#> # … with 69 more rows
…
