Plot the fit penalty. — plot_penalty • revolver
…
    Value

    A ggplot object for this plot.

    Examples

# Data released in the 'evoverse.datasets'
data('TRACERx_NEJM_2017_REVOLVER', package = 'evoverse.datasets')
 
plot_penalty(TRACERx_NEJM_2017_REVOLVER)
#> 
#> =-=-=-=-=-=-=-=-=-=-=-=-=-=-=-=-=-=-
#>  Enrichment test for incoming edges
#> =-=-=-=-=-=-=-=-=-=-=-=-=-=-=-=-=-=-
#> # A tibble: 49 × 15
#>    estimate    p.value conf.low conf.high method alternative from  to    POS_POS
#>       <dbl>      <dbl>    <dbl>     <dbl> <chr>  <chr>       <chr> <chr>   <int>
#>  1     23.0    1.82e-9     8.60       Inf Fishe… greater     EGFR  TP53       13
#>  2     25.4    1.36e-6     4.81       Inf Fishe… greater     GL    PIK3…      20
#>  3     10.5    6.27e-6     4.19       Inf Fishe… greater     CDKN… TP53       10
#>  4     12.6    8.68e-6     3.56       Inf Fishe… greater     GL    EGFR       20
#>  5    Inf      1.48e-5     5.16       Inf Fishe… greater     GL    CDKN…      14
#>  6    Inf      1.48e-5     5.16       Inf Fishe… greater     GL    SOX2       14
#>  7     19.8    1.71e-5     5.37       Inf Fishe… greater     TP53  FAT1        7
#>  8    Inf      2.10e-5     9.42       Inf Fishe… greater     RASA1 TP53        5
#>  9    Inf      5.99e-5    14.5        Inf Fishe… greater     BRAF  TERT        3
#> 10    Inf      7.41e-5     4.31       Inf Fishe… greater     GL    KEAP1      12
#> # … with 39 more rows, and 6 more variables: POS_NEG <int>, NEG_POS <int>,
#> #   NEG_NEG <int>, alpha_level <dbl>, N <int>, psign <lgl>
…
