…
#> Rows before filtering: 2380 
#> 
#> Removed
#> 
#> # A tibble: 0 x 9
#> # … with 9 variables: Misc <chr>, patientID <chr>, variantID <chr>,
#> #   cluster <chr>, is.driver <lgl>, is.clonal <lgl>, CCF <chr>, id <chr>,
#> #   cluster_size <int>
#> 
#> Rows after filtering: 2380 
#> 
#> =-=-=-=-=-=-=-=-=-=-=-
#>  REVOLVER input data
#> =-=-=-=-=-=-=-=-=-=-=-
#> # A tibble: 2,380 x 9
#>    Misc  patientID variantID cluster is.driver is.clonal CCF   id   
#>    <chr> <chr>     <chr>     <chr>   <lgl>     <lgl>     <chr> <chr>
#>  1 CRUK… CRUK0001  PKD1L1    1       FALSE     FALSE     R1:0… __mu…
#>  2 CRUK… CRUK0001  PCNT      1       FALSE     FALSE     R1:0… __mu…
#>  3 CRUK… CRUK0001  CSF2RB    1       FALSE     FALSE     R1:0… __mu…
#>  4 CRUK… CRUK0001  KAZALD1   1       FALSE     FALSE     R1:0… __mu…
#>  5 CRUK… CRUK0001  CACNA2D1  1       FALSE     FALSE     R1:0… __mu…
#>  6 CRUK… CRUK0001  IPO9      1       FALSE     FALSE     R1:0… __mu…
#>  7 CRUK… CRUK0001  PDCD10    1       FALSE     FALSE     R1:0… __mu…
#>  8 CRUK… CRUK0001  CALD1     1       FALSE     FALSE     R1:0… __mu…
#>  9 CRUK… CRUK0001  CANT1     1       FALSE     FALSE     R1:0… __mu…
#> 10 CRUK… CRUK0001  IFT140    1       FALSE     FALSE     R1:0… __mu…
#> # … with 2,370 more rows, and 1 more variable: cluster_size <int>
…
