Analysis of the TRACERx cohort, with REVOLVER. The input object ofr the analysis is "TRACERx_data" — TRACERx_cohort • revolver
…
#>  [ REVOLVER - Repeated Evolution in Cancer ] 
#> 
#> Dataset : TRACERx cohort released with the REVOLVER package 
#> Cohort  : 99 patients, 65421 variants and 79 driver events. 
#> 
#> Trees per patient    : YES 
#> Fit via TL           : NO 
#> REVOLVER clustering  : NO 
#> Jackknife statistics : NO 
#>  
#> For summary statistics see `?Stats_*(x)` with * = {cohort, drivers, trees, fits, clusters, ...} 
#> 
#> 
#>  WARNING  Some patients have only one clone with drivers, and therefore they will just be expanded. 
#> # A tibble: 54 x 7
#>    patientID numBiopsies numMutations numDriverMutati… numClonesWithDr…
#>    <chr>           <int>        <int>            <int>            <int>
#>  1 CRUK0007            2          109                3                1
#>  2 CRUK0010            2          141                3                1
#>  3 CRUK0012            2          163                1                1
#>  4 CRUK0018            4          653                4                1
#>  5 CRUK0019            2          110                1                1
#>  6 CRUK0021            2          221                4                1
#>  7 CRUK0025            3          532                3                1
#>  8 CRUK0026            2          157                4                1
#>  9 CRUK0028            2           74                2                1
#> 10 CRUK0029            6          399                4                1
#> # … with 44 more rows, and 2 more variables: numTruncalMutations <int>,
#> #   numSubclonalMutations <int>
…
